{
  "total" : 1,
  "items" : [ {
    "uid" : "45c6c0641e9c1fa7e44cd0d2b7e3ecfc",
    "name" : "testCases",
    "statistic" : {
      "failed" : 2,
      "broken" : 0,
      "skipped" : 0,
      "passed" : 10,
      "unknown" : 0,
      "total" : 12
    }
  } ]
}