{
  "uid" : "b1a8273437954620fa374b796ffaacdd",
  "name" : "behaviors",
  "children" : [ {
    "name" : "test_negative_SignUp",
    "uid" : "42bb1e474ddd764e",
    "parentUid" : "b1a8273437954620fa374b796ffaacdd",
    "status" : "passed",
    "time" : {
      "start" : 1620301989247,
      "stop" : 1620302000470,
      "duration" : 11223
    },
    "flaky" : false,
    "newFailed" : false,
    "parameters" : [ ]
  }, {
    "name" : "test_close_page_on_last_step_of_registration",
    "uid" : "525b82df5e1032ca",
    "parentUid" : "b1a8273437954620fa374b796ffaacdd",
    "status" : "passed",
    "time" : {
      "start" : 1620302001961,
      "stop" : 1620302011920,
      "duration" : 9959
    },
    "flaky" : false,
    "newFailed" : false,
    "parameters" : [ ]
  }, {
    "name" : "test_Attempt_login_with_details_Pending_Verification",
    "uid" : "236eec4d1eb14001",
    "parentUid" : "b1a8273437954620fa374b796ffaacdd",
    "status" : "failed",
    "time" : {
      "start" : 1620302013338,
      "stop" : 1620302020662,
      "duration" : 7324
    },
    "flaky" : false,
    "newFailed" : false,
    "parameters" : [ ]
  }, {
    "name" : "test_SignUp",
    "uid" : "5a3206d688fbea74",
    "parentUid" : "b1a8273437954620fa374b796ffaacdd",
    "status" : "passed",
    "time" : {
      "start" : 1620302022261,
      "stop" : 1620302049869,
      "duration" : 27608
    },
    "flaky" : false,
    "newFailed" : false,
    "parameters" : [ ]
  }, {
    "name" : "test_forgotten_password_link_is_sent",
    "uid" : "2d6f93ea9be6af32",
    "parentUid" : "b1a8273437954620fa374b796ffaacdd",
    "status" : "passed",
    "time" : {
      "start" : 1620302051366,
      "stop" : 1620302089505,
      "duration" : 38139
    },
    "flaky" : false,
    "newFailed" : false,
    "parameters" : [ ]
  }, {
    "name" : "test_Login_with_valid_details",
    "uid" : "f065db4d0ff2ab3f",
    "parentUid" : "b1a8273437954620fa374b796ffaacdd",
    "status" : "failed",
    "time" : {
      "start" : 1620302090988,
      "stop" : 1620302105304,
      "duration" : 14316
    },
    "flaky" : false,
    "newFailed" : false,
    "parameters" : [ ]
  }, {
    "name" : "test_HomePage_Verification_Level_0",
    "uid" : "b0061efba69dde3d",
    "parentUid" : "b1a8273437954620fa374b796ffaacdd",
    "status" : "passed",
    "time" : {
      "start" : 1620302106769,
      "stop" : 1620302118121,
      "duration" : 11352
    },
    "flaky" : false,
    "newFailed" : false,
    "parameters" : [ ]
  }, {
    "name" : "test_Verify_User_Can_Not_Buy_At_Level_0",
    "uid" : "bd3e52f935f8699e",
    "parentUid" : "b1a8273437954620fa374b796ffaacdd",
    "status" : "passed",
    "time" : {
      "start" : 1620302119554,
      "stop" : 1620302135626,
      "duration" : 16072
    },
    "flaky" : false,
    "newFailed" : false,
    "parameters" : [ ]
  }, {
    "name" : "test_complete_profile_to_move_to_level_1",
    "uid" : "3f4c4f289af703e2",
    "parentUid" : "b1a8273437954620fa374b796ffaacdd",
    "status" : "passed",
    "time" : {
      "start" : 1620302137012,
      "stop" : 1620302156254,
      "duration" : 19242
    },
    "flaky" : false,
    "newFailed" : false,
    "parameters" : [ ]
  }, {
    "name" : "test_Verify_Phone_Number_to_move_to_level_2",
    "uid" : "4d3fd690bebd6bfb",
    "parentUid" : "b1a8273437954620fa374b796ffaacdd",
    "status" : "passed",
    "time" : {
      "start" : 1620302157662,
      "stop" : 1620302174849,
      "duration" : 17187
    },
    "flaky" : false,
    "newFailed" : false,
    "parameters" : [ ]
  }, {
    "name" : "test_Buy_ESAR",
    "uid" : "75698e7fb734f132",
    "parentUid" : "b1a8273437954620fa374b796ffaacdd",
    "status" : "passed",
    "time" : {
      "start" : 1620302176160,
      "stop" : 1620302195115,
      "duration" : 18955
    },
    "flaky" : false,
    "newFailed" : false,
    "parameters" : [ ]
  }, {
    "name" : "test_Sell_ESAR",
    "uid" : "1dfa7a409e6b8bd8",
    "parentUid" : "b1a8273437954620fa374b796ffaacdd",
    "status" : "passed",
    "time" : {
      "start" : 1620302196444,
      "stop" : 1620302214798,
      "duration" : 18354
    },
    "flaky" : false,
    "newFailed" : false,
    "parameters" : [ ]
  } ]
}