"Status","Start Time","Stop Time","Duration in ms","Parent Suite","Suite","Sub Suite","Test Class","Test Method","Name","Description"
"passed","Thu May 06 13:55:19 CAT 2021","Thu May 06 13:55:35 CAT 2021","16072","testCases","test_3_home","Test_003_Home","","","test_Verify_User_Can_Not_Buy_At_Level_0",""
"passed","Thu May 06 13:56:36 CAT 2021","Thu May 06 13:56:54 CAT 2021","18354","testCases","test_3_home","Test_003_Home","","","test_Sell_ESAR",""
"passed","Thu May 06 13:53:09 CAT 2021","Thu May 06 13:53:20 CAT 2021","11223","testCases","test_1_registration","Test_001_Registration","","","test_negative_SignUp",""
"passed","Thu May 06 13:55:06 CAT 2021","Thu May 06 13:55:18 CAT 2021","11352","testCases","test_3_home","Test_003_Home","","","test_HomePage_Verification_Level_0",""
"failed","Thu May 06 13:54:50 CAT 2021","Thu May 06 13:55:05 CAT 2021","14316","testCases","test_2_existingUser","Test_002_ExistingUser","","","test_Login_with_valid_details",""
"passed","Thu May 06 13:54:11 CAT 2021","Thu May 06 13:54:49 CAT 2021","38139","testCases","test_2_existingUser","Test_002_ExistingUser","","","test_forgotten_password_link_is_sent",""
"passed","Thu May 06 13:53:21 CAT 2021","Thu May 06 13:53:31 CAT 2021","9959","testCases","test_1_registration","Test_001_Registration","","","test_close_page_on_last_step_of_registration",""
"passed","Thu May 06 13:53:42 CAT 2021","Thu May 06 13:54:09 CAT 2021","27608","testCases","test_1_registration","Test_001_Registration","","","test_SignUp",""
"passed","Thu May 06 13:55:37 CAT 2021","Thu May 06 13:55:56 CAT 2021","19242","testCases","test_3_home","Test_003_Home","","","test_complete_profile_to_move_to_level_1",""
"passed","Thu May 06 13:56:16 CAT 2021","Thu May 06 13:56:35 CAT 2021","18955","testCases","test_3_home","Test_003_Home","","","test_Buy_ESAR",""
"failed","Thu May 06 13:53:33 CAT 2021","Thu May 06 13:53:40 CAT 2021","7324","testCases","test_1_registration","Test_001_Registration","","","test_Attempt_login_with_details_Pending_Verification",""
"passed","Thu May 06 13:55:57 CAT 2021","Thu May 06 13:56:14 CAT 2021","17187","testCases","test_3_home","Test_003_Home","","","test_Verify_Phone_Number_to_move_to_level_2",""
